ed11067509
ed325816
mn400256
mn409566
ed300323
mn400150
mn408364
mn409820
mn408470
mn400350
mn409601
mn400156
mn409424
mn408659
mn408580
mn408796
mn408670
mn408821
mn408620
mn409078
mn409798
mn408267
mn408408
mn408489
mn408928
mn400351
mn400429
